<?xml version="1.0" encoding="UTF-8" standalone="no"?><svg xmlns="http://www.w3.org/2000/svg" xmlns:xlink="http://www.w3.org/1999/xlink" contentScriptType="application/ecmascript" contentStyleType="text/css" height="124px" preserveAspectRatio="none" style="width:121px;height:124px;" version="1.1" viewBox="0 0 121 124" width="121px" zoomAndPan="magnify"><defs><filter height="300%" id="fvsnsy26xa2sh" width="300%" x="-1" y="-1"><feGaussianBlur result="blurOut" stdDeviation="2.0"/><feColorMatrix in="blurOut" result="blurOut2" type="matrix" values="0 0 0 0 0 0 0 0 0 0 0 0 0 0 0 0 0 0 .4 0"/><feOffset dx="4.0" dy="4.0" in="blurOut2" result="blurOut3"/><feBlend in="SourceGraphic" in2="blurOut3" mode="normal"/></filter></defs><g><!--MD5=[3f0ef310aaa84a542276992c5216544d]
class Car--><rect fill="#2E2E2E" filter="url(#fvsnsy26xa2sh)" height="106.0234" id="Car" style="stroke: #1B1B1B; stroke-width: 1.5;" width="103" x="7" y="7"/><ellipse cx="44.5" cy="20" fill="#880000" rx="8" ry="8" style="stroke: #1B1B1B; stroke-width: 1.0;"/><path d="M45.1406,24.1563 Q44.25,24.1563 43.4844,23.8906 Q42.7344,23.625 42.1875,23.1094 Q41.6563,22.5938 41.3438,21.8125 Q41.0469,21.0313 41.0469,20.0156 Q41.0469,19.0625 41.3281,18.2969 Q41.625,17.5156 42.1719,16.9531 Q42.6875,16.4219 43.4531,16.1406 Q44.2344,15.8438 45.1406,15.8438 Q45.6406,15.8438 46.0469,15.9063 Q46.4531,15.9531 46.7969,16.0469 Q47.1563,16.1563 47.4531,16.2813 Q47.75,16.4063 47.9688,16.5156 L47.9688,18.4531 L47.7344,18.4531 Q47.5781,18.3281 47.3438,18.1563 Q47.125,17.9688 46.8281,17.7969 Q46.5313,17.625 46.1875,17.5156 Q45.8438,17.3906 45.4531,17.3906 Q45.0156,17.3906 44.625,17.5313 Q44.2344,17.6563 43.9063,17.9844 Q43.5938,18.2813 43.3906,18.7969 Q43.2031,19.2969 43.2031,20.0156 Q43.2031,20.7656 43.4063,21.2813 Q43.625,21.7813 43.9375,22.0625 Q44.2656,22.3594 44.6719,22.4844 Q45.0781,22.6094 45.4688,22.6094 Q45.8438,22.6094 46.2031,22.5 Q46.5781,22.3906 46.8906,22.1875 Q47.1563,22.0469 47.375,21.875 Q47.6094,21.6875 47.75,21.5625 L47.9688,21.5625 L47.9688,23.4688 Q47.6719,23.6094 47.3906,23.7344 Q47.125,23.8438 46.8125,23.9219 Q46.4219,24.0313 46.0781,24.0938 Q45.7344,24.1563 45.1406,24.1563 Z "/><text fill="#FFFFFF" font-family="Verdana" font-size="11" lengthAdjust="spacingAndGlyphs" textLength="21" x="60.5" y="24.3748">Car</text><line style="stroke: #1B1B1B; stroke-width: 1.5;" x1="8" x2="109" y1="33" y2="33"/><ellipse cx="18" cy="44" fill="none" rx="3" ry="3" style="stroke: #038048; stroke-width: 1.0;"/><text fill="#AAAAAA" font-family="sans-serif" font-size="11" lengthAdjust="spacingAndGlyphs" textLength="33" x="24" y="47.2104">brand</text><ellipse cx="18" cy="56.8047" fill="none" rx="3" ry="3" style="stroke: #038048; stroke-width: 1.0;"/><text fill="#AAAAAA" font-family="sans-serif" font-size="11" lengthAdjust="spacingAndGlyphs" textLength="28" x="24" y="60.0151">color</text><ellipse cx="18" cy="69.6094" fill="none" rx="3" ry="3" style="stroke: #038048; stroke-width: 1.0;"/><text fill="#AAAAAA" font-family="sans-serif" font-size="11" lengthAdjust="spacingAndGlyphs" textLength="51" x="24" y="72.8198">iselectric</text><line style="stroke: #1B1B1B; stroke-width: 1.5;" x1="8" x2="109" y1="79.4141" y2="79.4141"/><ellipse cx="18" cy="90.4141" fill="#84BE84" rx="3" ry="3" style="stroke: #038048; stroke-width: 1.0;"/><text fill="#AAAAAA" font-family="sans-serif" font-size="11" lengthAdjust="spacingAndGlyphs" textLength="80" x="24" y="93.6245">makeElectric()</text><ellipse cx="18" cy="103.2188" fill="#84BE84" rx="3" ry="3" style="stroke: #038048; stroke-width: 1.0;"/><text fill="#AAAAAA" font-family="sans-serif" font-size="11" lengthAdjust="spacingAndGlyphs" textLength="74" x="24" y="106.4292">makeDiesel()</text><!--MD5=[71dd19d00dae1b0fe1f49481ecaf9ad5]
@startuml




skinparam stereotypeCBackgroundColor 880000




skinparam backgroundColor 777






skinparam circledCharacter {
  radius 8
  fontSize 11
  fontName "Verdana"
}

skinparam class {
    backgroundColor 2e2e2e
  borderColor 1b1b1b
    fontColor fff
  fontName "Verdana"
  fontSize 11
  stereotypeFontColor aaa
  stereotypeFontSize 11
    arrowColor fff
  arrowFontName "Verdana"
  arrowFontColor bbb
  arrowFontSize 11

  attributeFontColor aaa
  attributeFontSize 11
  attributeIconSize 11
}


skinparam actor {
    backgroundColor 880000
  borderColor 330000
    fontColor fff
  fontName "Verdana"
  fontSize 11
  stereotypeFontColor aaa
  stereotypeFontSize 11
}

skinparam participant {
    backgroundColor 2e2e2e
  borderColor 1b1b1b
    fontColor fff
  fontName "Verdana"
  fontSize 11
  stereotypeFontColor aaa
  stereotypeFontSize 11
}


skinparam interface {
    backgroundColor 880000
  borderColor 330000
    fontColor fff
  fontName "Verdana"
  fontSize 11
  stereotypeFontColor aaa
  stereotypeFontSize 11
}

skinparam component {
    backgroundColor 2e2e2e
  borderColor 1b1b1b
    fontColor fff
  fontName "Verdana"
  fontSize 11
  stereotypeFontColor aaa
  stereotypeFontSize 11
}

skinparam node {
    backgroundColor 2e2e2e
  borderColor 1b1b1b
    fontColor fff
  fontName "Verdana"
  fontSize 11
  stereotypeFontColor aaa
  stereotypeFontSize 11
}

skinparam database {
    backgroundColor 2e2e2e
  borderColor 1b1b1b
    fontColor fff
  fontName "Verdana"
  fontSize 11
  stereotypeFontColor aaa
  stereotypeFontSize 11
}

skinparam queue {
    backgroundColor 2e2e2e
  borderColor 1b1b1b
    fontColor fff
  fontName "Verdana"
  fontSize 11
  stereotypeFontColor aaa
  stereotypeFontSize 11
}


skinparam usecase {
    backgroundColor 2e2e2e
  borderColor 1b1b1b
    fontColor fff
  fontName "Verdana"
  fontSize 11
  stereotypeFontColor aaa
  stereotypeFontSize 11
    arrowColor fff
  arrowFontName "Verdana"
  arrowFontColor bbb
  arrowFontSize 11
}

skinparam activity {
    backgroundColor 2e2e2e
  borderColor 1b1b1b
    fontColor fff
  fontName "Verdana"
  fontSize 11
  stereotypeFontColor aaa
  stereotypeFontSize 11
    arrowColor fff
  arrowFontName "Verdana"
  arrowFontColor bbb
  arrowFontSize 11
}

skinparam sequence {
    fontColor fff
  fontName "Verdana"
  fontSize 11
  stereotypeFontColor aaa
  stereotypeFontSize 11
    arrowColor fff
  arrowFontName "Verdana"
  arrowFontColor bbb
  arrowFontSize 11

  lifeLineBorderColor fff
  lifeLineBackgroundColor bbb
}

skinparam boundary {
    backgroundColor 880000
  borderColor 330000
    fontColor fff
  fontName "Verdana"
  fontSize 11
  stereotypeFontColor aaa
  stereotypeFontSize 11
}

skinparam control {
    backgroundColor 880000
  borderColor 330000
    fontColor fff
  fontName "Verdana"
  fontSize 11
  stereotypeFontColor aaa
  stereotypeFontSize 11
}

skinparam entity {
    backgroundColor 880000
  borderColor 330000
    fontColor fff
  fontName "Verdana"
  fontSize 11
  stereotypeFontColor aaa
  stereotypeFontSize 11
}


skinparam state {
    backgroundColor 2e2e2e
  borderColor 1b1b1b
    fontColor fff
  fontName "Verdana"
  fontSize 11
  stereotypeFontColor aaa
  stereotypeFontSize 11
    arrowColor fff
  arrowFontName "Verdana"
  arrowFontColor bbb
  arrowFontSize 11
  startColor 880000
  endColor 330000
}


skinparam object {
    backgroundColor 2e2e2e
  borderColor 1b1b1b
    fontColor fff
  fontName "Verdana"
  fontSize 11
  stereotypeFontColor aaa
  stereotypeFontSize 11
    arrowColor fff
  arrowFontName "Verdana"
  arrowFontColor bbb
  arrowFontSize 11
}


skinparam note {
    backgroundColor 880000
  borderColor 330000
    fontColor fff
  fontName "Verdana"
  fontSize 11
  stereotypeFontColor aaa
  stereotypeFontSize 11
}

skinparam cloud {
    backgroundColor 2e2e2e
  borderColor 1b1b1b
    fontColor fff
  fontName "Verdana"
  fontSize 11
  stereotypeFontColor aaa
  stereotypeFontSize 11
    arrowColor fff
  arrowFontName "Verdana"
  arrowFontColor bbb
  arrowFontSize 11
}

skinparam rectangle {
    backgroundColor 2e2e2e
  borderColor 1b1b1b
    fontColor fff
  fontName "Verdana"
  fontSize 11
  stereotypeFontColor aaa
  stereotypeFontSize 11
}

skinparam storage {
    backgroundColor 2e2e2e
  borderColor 1b1b1b
    fontColor fff
  fontName "Verdana"
  fontSize 11
  stereotypeFontColor aaa
  stereotypeFontSize 11
}

class Car {
 +brand
 +color
 +iselectric
 +makeElectric()
 +makeDiesel()
}
@enduml

PlantUML version 1.2019.13(Tue Dec 10 12:18:29 PET 2019)
(GPL source distribution)
Java Runtime: OpenJDK Runtime Environment
JVM: OpenJDK 64-Bit Server VM
Java Version: 1.8.0_242-b08
Operating System: Linux
Default Encoding: UTF-8
Language: en
Country: US
--></g></svg>