<?xml version="1.0" encoding="UTF-8"?>
<svg xmlns="http://www.w3.org/2000/svg" xmlns:xlink="http://www.w3.org/1999/xlink" width="900pt" height="167pt" viewBox="0 0 900 167" version="1.1">
<defs>
<g>
<symbol overflow="visible" id="glyph0-0">
<path style="stroke:none;" d=""/>
</symbol>
<symbol overflow="visible" id="glyph0-1">
<path style="stroke:none;" d="M 17.546875 -15.109375 C 16.375 -14.890625 15.921875 -14 15.921875 -13.296875 C 15.921875 -12.40625 16.625 -12.109375 17.140625 -12.109375 C 18.25 -12.109375 19.03125 -13.078125 19.03125 -14.078125 C 19.03125 -15.625 17.25 -16.328125 15.703125 -16.328125 C 13.4375 -16.328125 12.1875 -14.109375 11.84375 -13.40625 C 11 -16.1875 8.703125 -16.328125 8.03125 -16.328125 C 4.265625 -16.328125 2.265625 -11.484375 2.265625 -10.671875 C 2.265625 -10.515625 2.40625 -10.328125 2.671875 -10.328125 C 2.96875 -10.328125 3.03125 -10.546875 3.109375 -10.703125 C 4.375 -14.8125 6.84375 -15.59375 7.921875 -15.59375 C 9.59375 -15.59375 9.921875 -14.03125 9.921875 -13.140625 C 9.921875 -12.328125 9.703125 -11.484375 9.25 -9.703125 L 8 -4.625 C 7.4375 -2.40625 6.375 -0.375 4.40625 -0.375 C 4.21875 -0.375 3.296875 -0.375 2.515625 -0.859375 C 3.84375 -1.109375 4.140625 -2.21875 4.140625 -2.671875 C 4.140625 -3.40625 3.59375 -3.84375 2.890625 -3.84375 C 2 -3.84375 1.03125 -3.078125 1.03125 -1.890625 C 1.03125 -0.328125 2.78125 0.375 4.375 0.375 C 6.140625 0.375 7.40625 -1.03125 8.1875 -2.5625 C 8.78125 -0.375 10.625 0.375 12 0.375 C 15.78125 0.375 17.78125 -4.484375 17.78125 -5.296875 C 17.78125 -5.484375 17.625 -5.625 17.40625 -5.625 C 17.078125 -5.625 17.03125 -5.4375 16.921875 -5.140625 C 15.921875 -1.890625 13.78125 -0.375 12.109375 -0.375 C 10.8125 -0.375 10.109375 -1.328125 10.109375 -2.84375 C 10.109375 -3.671875 10.25 -4.265625 10.84375 -6.703125 L 12.140625 -11.734375 C 12.703125 -13.953125 13.953125 -15.59375 15.671875 -15.59375 C 15.734375 -15.59375 16.78125 -15.59375 17.546875 -15.109375 Z M 17.546875 -15.109375 "/>
</symbol>
<symbol overflow="visible" id="glyph0-2">
<path style="stroke:none;" d="M 9.734375 4.140625 C 8.734375 5.546875 7.296875 6.8125 5.484375 6.8125 C 5.03125 6.8125 3.265625 6.734375 2.703125 5.03125 C 2.8125 5.078125 3 5.078125 3.078125 5.078125 C 4.1875 5.078125 4.921875 4.109375 4.921875 3.265625 C 4.921875 2.40625 4.21875 2.109375 3.671875 2.109375 C 3.078125 2.109375 1.78125 2.5625 1.78125 4.375 C 1.78125 6.265625 3.375 7.546875 5.484375 7.546875 C 9.1875 7.546875 12.921875 4.140625 13.953125 0.03125 L 17.59375 -14.40625 C 17.625 -14.59375 17.703125 -14.8125 17.703125 -15.03125 C 17.703125 -15.59375 17.25 -15.953125 16.703125 -15.953125 C 16.375 -15.953125 15.59375 -15.8125 15.296875 -14.703125 L 12.546875 -3.8125 C 12.375 -3.140625 12.375 -3.078125 12.078125 -2.671875 C 11.328125 -1.625 10.109375 -0.375 8.328125 -0.375 C 6.265625 -0.375 6.078125 -2.40625 6.078125 -3.40625 C 6.078125 -5.515625 7.078125 -8.375 8.078125 -11.03125 C 8.484375 -12.109375 8.703125 -12.625 8.703125 -13.375 C 8.703125 -14.921875 7.59375 -16.328125 5.78125 -16.328125 C 2.375 -16.328125 1 -10.96875 1 -10.671875 C 1 -10.515625 1.140625 -10.328125 1.40625 -10.328125 C 1.734375 -10.328125 1.78125 -10.484375 1.921875 -11 C 2.8125 -14.109375 4.21875 -15.59375 5.671875 -15.59375 C 6 -15.59375 6.625 -15.59375 6.625 -14.375 C 6.625 -13.40625 6.21875 -12.328125 5.671875 -10.921875 C 3.84375 -6.078125 3.84375 -4.84375 3.84375 -3.96875 C 3.84375 -0.4375 6.375 0.375 8.21875 0.375 C 9.296875 0.375 10.625 0.03125 11.921875 -1.328125 L 11.96875 -1.296875 C 11.40625 0.890625 11.03125 2.328125 9.734375 4.140625 Z M 9.734375 4.140625 "/>
</symbol>
<symbol overflow="visible" id="glyph1-0">
<path style="stroke:none;" d=""/>
</symbol>
<symbol overflow="visible" id="glyph1-1">
<path style="stroke:none;" d="M 11.828125 -8.234375 C 11.828125 -10.28125 11.703125 -12.34375 10.796875 -14.25 C 9.625 -16.71875 7.515625 -17.125 6.421875 -17.125 C 4.890625 -17.125 3.015625 -16.453125 1.953125 -14.0625 C 1.125 -12.296875 1 -10.28125 1 -8.234375 C 1 -6.296875 1.109375 -3.984375 2.15625 -2.03125 C 3.265625 0.046875 5.140625 0.5625 6.40625 0.5625 C 7.796875 0.5625 9.75 0.03125 10.875 -2.421875 C 11.703125 -4.1875 11.828125 -6.203125 11.828125 -8.234375 Z M 6.40625 0 C 5.40625 0 3.890625 -0.640625 3.421875 -3.109375 C 3.140625 -4.65625 3.140625 -7.015625 3.140625 -8.53125 C 3.140625 -10.1875 3.140625 -11.875 3.34375 -13.265625 C 3.828125 -16.328125 5.765625 -16.5625 6.40625 -16.5625 C 7.25 -16.5625 8.953125 -16.09375 9.4375 -13.546875 C 9.703125 -12.109375 9.703125 -10.15625 9.703125 -8.53125 C 9.703125 -6.609375 9.703125 -4.859375 9.40625 -3.21875 C 9.03125 -0.765625 7.5625 0 6.40625 0 Z M 6.40625 0 "/>
</symbol>
<symbol overflow="visible" id="glyph1-2">
<path style="stroke:none;" d="M 7.5625 -16.453125 C 7.5625 -17.078125 7.5625 -17.125 6.96875 -17.125 C 5.375 -15.484375 3.109375 -15.484375 2.28125 -15.484375 L 2.28125 -14.6875 C 2.796875 -14.6875 4.328125 -14.6875 5.65625 -15.359375 L 5.65625 -2.03125 C 5.65625 -1.109375 5.578125 -0.796875 3.265625 -0.796875 L 2.4375 -0.796875 L 2.4375 0 C 3.34375 -0.078125 5.578125 -0.078125 6.609375 -0.078125 C 7.640625 -0.078125 9.875 -0.078125 10.78125 0 L 10.78125 -0.796875 L 9.953125 -0.796875 C 7.640625 -0.796875 7.5625 -1.078125 7.5625 -2.03125 Z M 7.5625 -16.453125 "/>
</symbol>
<symbol overflow="visible" id="glyph1-3">
<path style="stroke:none;" d="M 3.265625 -1.984375 L 6 -4.625 C 10 -8.171875 11.546875 -9.5625 11.546875 -12.140625 C 11.546875 -15.078125 9.234375 -17.125 6.09375 -17.125 C 3.1875 -17.125 1.28125 -14.765625 1.28125 -12.46875 C 1.28125 -11.03125 2.578125 -11.03125 2.65625 -11.03125 C 3.09375 -11.03125 3.984375 -11.34375 3.984375 -12.390625 C 3.984375 -13.0625 3.53125 -13.734375 2.625 -13.734375 C 2.421875 -13.734375 2.359375 -13.734375 2.28125 -13.703125 C 2.875 -15.375 4.265625 -16.328125 5.765625 -16.328125 C 8.09375 -16.328125 9.203125 -14.25 9.203125 -12.140625 C 9.203125 -10.078125 7.921875 -8.046875 6.5 -6.453125 L 1.5625 -0.953125 C 1.28125 -0.671875 1.28125 -0.625 1.28125 0 L 10.828125 0 L 11.546875 -4.46875 L 10.90625 -4.46875 C 10.78125 -3.703125 10.59375 -2.578125 10.34375 -2.1875 C 10.15625 -1.984375 8.46875 -1.984375 7.890625 -1.984375 Z M 3.265625 -1.984375 "/>
</symbol>
<symbol overflow="visible" id="glyph1-4">
<path style="stroke:none;" d="M 7.453125 -9.046875 C 9.5625 -9.75 11.0625 -11.546875 11.0625 -13.578125 C 11.0625 -15.6875 8.796875 -17.125 6.328125 -17.125 C 3.734375 -17.125 1.78125 -15.578125 1.78125 -13.625 C 1.78125 -12.78125 2.34375 -12.296875 3.09375 -12.296875 C 3.890625 -12.296875 4.390625 -12.859375 4.390625 -13.609375 C 4.390625 -14.890625 3.1875 -14.890625 2.796875 -14.890625 C 3.59375 -16.15625 5.296875 -16.484375 6.21875 -16.484375 C 7.28125 -16.484375 8.6875 -15.921875 8.6875 -13.609375 C 8.6875 -13.296875 8.640625 -11.8125 7.96875 -10.671875 C 7.203125 -9.4375 6.328125 -9.359375 5.6875 -9.328125 C 5.484375 -9.3125 4.859375 -9.265625 4.6875 -9.265625 C 4.46875 -9.234375 4.296875 -9.203125 4.296875 -8.953125 C 4.296875 -8.671875 4.46875 -8.671875 4.90625 -8.671875 L 6.046875 -8.671875 C 8.15625 -8.671875 9.109375 -6.921875 9.109375 -4.390625 C 9.109375 -0.90625 7.328125 -0.15625 6.203125 -0.15625 C 5.09375 -0.15625 3.15625 -0.59375 2.265625 -2.109375 C 3.15625 -1.984375 3.953125 -2.546875 3.953125 -3.53125 C 3.953125 -4.453125 3.265625 -4.96875 2.515625 -4.96875 C 1.90625 -4.96875 1.078125 -4.609375 1.078125 -3.46875 C 1.078125 -1.125 3.46875 0.5625 6.28125 0.5625 C 9.40625 0.5625 11.75 -1.78125 11.75 -4.390625 C 11.75 -6.5 10.140625 -8.515625 7.453125 -9.046875 Z M 7.453125 -9.046875 "/>
</symbol>
<symbol overflow="visible" id="glyph2-0">
<path style="stroke:none;" d=""/>
</symbol>
<symbol overflow="visible" id="glyph2-1">
<path style="stroke:none;" d="M 9.734375 4.140625 C 8.734375 5.546875 7.296875 6.8125 5.484375 6.8125 C 5.03125 6.8125 3.265625 6.734375 2.703125 5.03125 C 2.8125 5.078125 3 5.078125 3.078125 5.078125 C 4.1875 5.078125 4.921875 4.109375 4.921875 3.265625 C 4.921875 2.40625 4.21875 2.109375 3.671875 2.109375 C 3.078125 2.109375 1.78125 2.5625 1.78125 4.375 C 1.78125 6.265625 3.375 7.546875 5.484375 7.546875 C 9.1875 7.546875 12.921875 4.140625 13.953125 0.03125 L 17.59375 -14.40625 C 17.625 -14.59375 17.703125 -14.8125 17.703125 -15.03125 C 17.703125 -15.59375 17.25 -15.953125 16.703125 -15.953125 C 16.375 -15.953125 15.59375 -15.8125 15.296875 -14.703125 L 12.546875 -3.8125 C 12.375 -3.140625 12.375 -3.078125 12.078125 -2.671875 C 11.328125 -1.625 10.109375 -0.375 8.328125 -0.375 C 6.265625 -0.375 6.078125 -2.40625 6.078125 -3.40625 C 6.078125 -5.515625 7.078125 -8.375 8.078125 -11.03125 C 8.484375 -12.109375 8.703125 -12.625 8.703125 -13.375 C 8.703125 -14.921875 7.59375 -16.328125 5.78125 -16.328125 C 2.375 -16.328125 1 -10.96875 1 -10.671875 C 1 -10.515625 1.140625 -10.328125 1.40625 -10.328125 C 1.734375 -10.328125 1.78125 -10.484375 1.921875 -11 C 2.8125 -14.109375 4.21875 -15.59375 5.671875 -15.59375 C 6 -15.59375 6.625 -15.59375 6.625 -14.375 C 6.625 -13.40625 6.21875 -12.328125 5.671875 -10.921875 C 3.84375 -6.078125 3.84375 -4.84375 3.84375 -3.96875 C 3.84375 -0.4375 6.375 0.375 8.21875 0.375 C 9.296875 0.375 10.625 0.03125 11.921875 -1.328125 L 11.96875 -1.296875 C 11.40625 0.890625 11.03125 2.328125 9.734375 4.140625 Z M 9.734375 4.140625 "/>
</symbol>
<symbol overflow="visible" id="glyph3-0">
<path style="stroke:none;" d=""/>
</symbol>
<symbol overflow="visible" id="glyph3-1">
<path style="stroke:none;" d="M 11.828125 -8.234375 C 11.828125 -10.28125 11.703125 -12.34375 10.796875 -14.25 C 9.625 -16.71875 7.515625 -17.125 6.421875 -17.125 C 4.890625 -17.125 3.015625 -16.453125 1.953125 -14.0625 C 1.125 -12.296875 1 -10.28125 1 -8.234375 C 1 -6.296875 1.109375 -3.984375 2.15625 -2.03125 C 3.265625 0.046875 5.140625 0.5625 6.40625 0.5625 C 7.796875 0.5625 9.75 0.03125 10.875 -2.421875 C 11.703125 -4.1875 11.828125 -6.203125 11.828125 -8.234375 Z M 6.40625 0 C 5.40625 0 3.890625 -0.640625 3.421875 -3.109375 C 3.140625 -4.65625 3.140625 -7.015625 3.140625 -8.53125 C 3.140625 -10.1875 3.140625 -11.875 3.34375 -13.265625 C 3.828125 -16.328125 5.765625 -16.5625 6.40625 -16.5625 C 7.25 -16.5625 8.953125 -16.09375 9.4375 -13.546875 C 9.703125 -12.109375 9.703125 -10.15625 9.703125 -8.53125 C 9.703125 -6.609375 9.703125 -4.859375 9.40625 -3.21875 C 9.03125 -0.765625 7.5625 0 6.40625 0 Z M 6.40625 0 "/>
</symbol>
<symbol overflow="visible" id="glyph3-2">
<path style="stroke:none;" d="M 7.5625 -16.453125 C 7.5625 -17.078125 7.5625 -17.125 6.96875 -17.125 C 5.375 -15.484375 3.109375 -15.484375 2.28125 -15.484375 L 2.28125 -14.6875 C 2.796875 -14.6875 4.328125 -14.6875 5.65625 -15.359375 L 5.65625 -2.03125 C 5.65625 -1.109375 5.578125 -0.796875 3.265625 -0.796875 L 2.4375 -0.796875 L 2.4375 0 C 3.34375 -0.078125 5.578125 -0.078125 6.609375 -0.078125 C 7.640625 -0.078125 9.875 -0.078125 10.78125 0 L 10.78125 -0.796875 L 9.953125 -0.796875 C 7.640625 -0.796875 7.5625 -1.078125 7.5625 -2.03125 Z M 7.5625 -16.453125 "/>
</symbol>
<symbol overflow="visible" id="glyph3-3">
<path style="stroke:none;" d="M 3.265625 -1.984375 L 6 -4.625 C 10 -8.171875 11.546875 -9.5625 11.546875 -12.140625 C 11.546875 -15.078125 9.234375 -17.125 6.09375 -17.125 C 3.1875 -17.125 1.28125 -14.765625 1.28125 -12.46875 C 1.28125 -11.03125 2.578125 -11.03125 2.65625 -11.03125 C 3.09375 -11.03125 3.984375 -11.34375 3.984375 -12.390625 C 3.984375 -13.0625 3.53125 -13.734375 2.625 -13.734375 C 2.421875 -13.734375 2.359375 -13.734375 2.28125 -13.703125 C 2.875 -15.375 4.265625 -16.328125 5.765625 -16.328125 C 8.09375 -16.328125 9.203125 -14.25 9.203125 -12.140625 C 9.203125 -10.078125 7.921875 -8.046875 6.5 -6.453125 L 1.5625 -0.953125 C 1.28125 -0.671875 1.28125 -0.625 1.28125 0 L 10.828125 0 L 11.546875 -4.46875 L 10.90625 -4.46875 C 10.78125 -3.703125 10.59375 -2.578125 10.34375 -2.1875 C 10.15625 -1.984375 8.46875 -1.984375 7.890625 -1.984375 Z M 3.265625 -1.984375 "/>
</symbol>
<symbol overflow="visible" id="glyph3-4">
<path style="stroke:none;" d="M 7.453125 -9.046875 C 9.5625 -9.75 11.0625 -11.546875 11.0625 -13.578125 C 11.0625 -15.6875 8.796875 -17.125 6.328125 -17.125 C 3.734375 -17.125 1.78125 -15.578125 1.78125 -13.625 C 1.78125 -12.78125 2.34375 -12.296875 3.09375 -12.296875 C 3.890625 -12.296875 4.390625 -12.859375 4.390625 -13.609375 C 4.390625 -14.890625 3.1875 -14.890625 2.796875 -14.890625 C 3.59375 -16.15625 5.296875 -16.484375 6.21875 -16.484375 C 7.28125 -16.484375 8.6875 -15.921875 8.6875 -13.609375 C 8.6875 -13.296875 8.640625 -11.8125 7.96875 -10.671875 C 7.203125 -9.4375 6.328125 -9.359375 5.6875 -9.328125 C 5.484375 -9.3125 4.859375 -9.265625 4.6875 -9.265625 C 4.46875 -9.234375 4.296875 -9.203125 4.296875 -8.953125 C 4.296875 -8.671875 4.46875 -8.671875 4.90625 -8.671875 L 6.046875 -8.671875 C 8.15625 -8.671875 9.109375 -6.921875 9.109375 -4.390625 C 9.109375 -0.90625 7.328125 -0.15625 6.203125 -0.15625 C 5.09375 -0.15625 3.15625 -0.59375 2.265625 -2.109375 C 3.15625 -1.984375 3.953125 -2.546875 3.953125 -3.53125 C 3.953125 -4.453125 3.265625 -4.96875 2.515625 -4.96875 C 1.90625 -4.96875 1.078125 -4.609375 1.078125 -3.46875 C 1.078125 -1.125 3.46875 0.5625 6.28125 0.5625 C 9.40625 0.5625 11.75 -1.78125 11.75 -4.390625 C 11.75 -6.5 10.140625 -8.515625 7.453125 -9.046875 Z M 7.453125 -9.046875 "/>
</symbol>
<symbol overflow="visible" id="glyph4-0">
<path style="stroke:none;" d=""/>
</symbol>
<symbol overflow="visible" id="glyph4-1">
<path style="stroke:none;" d="M 6.8125 -1.78125 C 6.8125 -2.84375 5.921875 -3.59375 5.03125 -3.59375 C 3.96875 -3.59375 3.21875 -2.703125 3.21875 -1.8125 C 3.21875 -0.734375 4.109375 0 5 0 C 6.078125 0 6.8125 -0.890625 6.8125 -1.78125 Z M 6.8125 -1.78125 "/>
</symbol>
<symbol overflow="visible" id="glyph5-0">
<path style="stroke:none;" d=""/>
</symbol>
<symbol overflow="visible" id="glyph5-1">
<path style="stroke:none;" d="M 2.265625 -1.515625 C 2.1875 -1.125 2.03125 -0.546875 2.03125 -0.40625 C 2.03125 0.046875 2.390625 0.28125 2.78125 0.28125 C 3.09375 0.28125 3.546875 0.078125 3.734375 -0.4375 C 3.75 -0.484375 4.0625 -1.703125 4.21875 -2.34375 L 4.78125 -4.65625 C 4.9375 -5.21875 5.09375 -5.78125 5.21875 -6.375 C 5.328125 -6.8125 5.53125 -7.5625 5.5625 -7.671875 C 5.9375 -8.46875 7.296875 -10.796875 9.75 -10.796875 C 10.90625 -10.796875 11.140625 -9.84375 11.140625 -9 C 11.140625 -7.40625 9.875 -4.109375 9.46875 -3.015625 C 9.234375 -2.421875 9.203125 -2.109375 9.203125 -1.828125 C 9.203125 -0.625 10.109375 0.28125 11.3125 0.28125 C 13.734375 0.28125 14.6875 -3.46875 14.6875 -3.671875 C 14.6875 -3.9375 14.453125 -3.9375 14.375 -3.9375 C 14.125 -3.9375 14.125 -3.859375 13.984375 -3.46875 C 13.484375 -1.71875 12.625 -0.28125 11.375 -0.28125 C 10.9375 -0.28125 10.75 -0.546875 10.75 -1.125 C 10.75 -1.78125 10.984375 -2.390625 11.21875 -2.953125 C 11.703125 -4.328125 12.78125 -7.15625 12.78125 -8.609375 C 12.78125 -10.34375 11.671875 -11.375 9.828125 -11.375 C 7.515625 -11.375 6.25 -9.71875 5.8125 -9.125 C 5.6875 -10.578125 4.625 -11.375 3.453125 -11.375 C 2.265625 -11.375 1.78125 -10.359375 1.515625 -9.90625 C 1.109375 -9.03125 0.75 -7.515625 0.75 -7.40625 C 0.75 -7.15625 1 -7.15625 1.046875 -7.15625 C 1.3125 -7.15625 1.34375 -7.171875 1.484375 -7.734375 C 1.921875 -9.5625 2.4375 -10.796875 3.375 -10.796875 C 3.890625 -10.796875 4.171875 -10.46875 4.171875 -9.625 C 4.171875 -9.078125 4.09375 -8.796875 3.75 -7.453125 Z M 2.265625 -1.515625 "/>
</symbol>
<symbol overflow="visible" id="glyph6-0">
<path style="stroke:none;" d=""/>
</symbol>
<symbol overflow="visible" id="glyph6-1">
<path style="stroke:none;" d="M 2.265625 -1.515625 C 2.1875 -1.125 2.03125 -0.546875 2.03125 -0.40625 C 2.03125 0.046875 2.390625 0.28125 2.78125 0.28125 C 3.09375 0.28125 3.546875 0.078125 3.734375 -0.4375 C 3.75 -0.484375 4.0625 -1.703125 4.21875 -2.34375 L 4.78125 -4.65625 C 4.9375 -5.21875 5.09375 -5.78125 5.21875 -6.375 C 5.328125 -6.8125 5.53125 -7.5625 5.5625 -7.671875 C 5.9375 -8.46875 7.296875 -10.796875 9.75 -10.796875 C 10.90625 -10.796875 11.140625 -9.84375 11.140625 -9 C 11.140625 -7.40625 9.875 -4.109375 9.46875 -3.015625 C 9.234375 -2.421875 9.203125 -2.109375 9.203125 -1.828125 C 9.203125 -0.625 10.109375 0.28125 11.3125 0.28125 C 13.734375 0.28125 14.6875 -3.46875 14.6875 -3.671875 C 14.6875 -3.9375 14.453125 -3.9375 14.375 -3.9375 C 14.125 -3.9375 14.125 -3.859375 13.984375 -3.46875 C 13.484375 -1.71875 12.625 -0.28125 11.375 -0.28125 C 10.9375 -0.28125 10.75 -0.546875 10.75 -1.125 C 10.75 -1.78125 10.984375 -2.390625 11.21875 -2.953125 C 11.703125 -4.328125 12.78125 -7.15625 12.78125 -8.609375 C 12.78125 -10.34375 11.671875 -11.375 9.828125 -11.375 C 7.515625 -11.375 6.25 -9.71875 5.8125 -9.125 C 5.6875 -10.578125 4.625 -11.375 3.453125 -11.375 C 2.265625 -11.375 1.78125 -10.359375 1.515625 -9.90625 C 1.109375 -9.03125 0.75 -7.515625 0.75 -7.40625 C 0.75 -7.15625 1 -7.15625 1.046875 -7.15625 C 1.3125 -7.15625 1.34375 -7.171875 1.484375 -7.734375 C 1.921875 -9.5625 2.4375 -10.796875 3.375 -10.796875 C 3.890625 -10.796875 4.171875 -10.46875 4.171875 -9.625 C 4.171875 -9.078125 4.09375 -8.796875 3.75 -7.453125 Z M 2.265625 -1.515625 "/>
</symbol>
<symbol overflow="visible" id="glyph7-0">
<path style="stroke:none;" d=""/>
</symbol>
<symbol overflow="visible" id="glyph7-1">
<path style="stroke:none;" d="M 16.953125 -5.921875 C 17.390625 -5.921875 17.84375 -5.921875 17.84375 -6.421875 C 17.84375 -6.9375 17.390625 -6.9375 16.953125 -6.9375 L 3.03125 -6.9375 C 2.59375 -6.9375 2.140625 -6.9375 2.140625 -6.421875 C 2.140625 -5.921875 2.59375 -5.921875 3.03125 -5.921875 Z M 16.953125 -5.921875 "/>
</symbol>
<symbol overflow="visible" id="glyph8-0">
<path style="stroke:none;" d=""/>
</symbol>
<symbol overflow="visible" id="glyph8-1">
<path style="stroke:none;" d="M 7.5625 -16.453125 C 7.5625 -17.078125 7.5625 -17.125 6.96875 -17.125 C 5.375 -15.484375 3.109375 -15.484375 2.28125 -15.484375 L 2.28125 -14.6875 C 2.796875 -14.6875 4.328125 -14.6875 5.65625 -15.359375 L 5.65625 -2.03125 C 5.65625 -1.109375 5.578125 -0.796875 3.265625 -0.796875 L 2.4375 -0.796875 L 2.4375 0 C 3.34375 -0.078125 5.578125 -0.078125 6.609375 -0.078125 C 7.640625 -0.078125 9.875 -0.078125 10.78125 0 L 10.78125 -0.796875 L 9.953125 -0.796875 C 7.640625 -0.796875 7.5625 -1.078125 7.5625 -2.03125 Z M 7.5625 -16.453125 "/>
</symbol>
<symbol overflow="visible" id="glyph8-2">
<path style="stroke:none;" d="M 3.265625 -1.984375 L 6 -4.625 C 10 -8.171875 11.546875 -9.5625 11.546875 -12.140625 C 11.546875 -15.078125 9.234375 -17.125 6.09375 -17.125 C 3.1875 -17.125 1.28125 -14.765625 1.28125 -12.46875 C 1.28125 -11.03125 2.578125 -11.03125 2.65625 -11.03125 C 3.09375 -11.03125 3.984375 -11.34375 3.984375 -12.390625 C 3.984375 -13.0625 3.53125 -13.734375 2.625 -13.734375 C 2.421875 -13.734375 2.359375 -13.734375 2.28125 -13.703125 C 2.875 -15.375 4.265625 -16.328125 5.765625 -16.328125 C 8.09375 -16.328125 9.203125 -14.25 9.203125 -12.140625 C 9.203125 -10.078125 7.921875 -8.046875 6.5 -6.453125 L 1.5625 -0.953125 C 1.28125 -0.671875 1.28125 -0.625 1.28125 0 L 10.828125 0 L 11.546875 -4.46875 L 10.90625 -4.46875 C 10.78125 -3.703125 10.59375 -2.578125 10.34375 -2.1875 C 10.15625 -1.984375 8.46875 -1.984375 7.890625 -1.984375 Z M 3.265625 -1.984375 "/>
</symbol>
<symbol overflow="visible" id="glyph9-0">
<path style="stroke:none;" d=""/>
</symbol>
<symbol overflow="visible" id="glyph9-1">
<path style="stroke:none;" d="M 2.265625 -1.515625 C 2.1875 -1.125 2.03125 -0.546875 2.03125 -0.40625 C 2.03125 0.046875 2.390625 0.28125 2.78125 0.28125 C 3.09375 0.28125 3.546875 0.078125 3.734375 -0.4375 C 3.75 -0.484375 4.0625 -1.703125 4.21875 -2.34375 L 4.78125 -4.65625 C 4.9375 -5.21875 5.09375 -5.78125 5.21875 -6.375 C 5.328125 -6.8125 5.53125 -7.5625 5.5625 -7.671875 C 5.9375 -8.46875 7.296875 -10.796875 9.75 -10.796875 C 10.90625 -10.796875 11.140625 -9.84375 11.140625 -9 C 11.140625 -7.40625 9.875 -4.109375 9.46875 -3.015625 C 9.234375 -2.421875 9.203125 -2.109375 9.203125 -1.828125 C 9.203125 -0.625 10.109375 0.28125 11.3125 0.28125 C 13.734375 0.28125 14.6875 -3.46875 14.6875 -3.671875 C 14.6875 -3.9375 14.453125 -3.9375 14.375 -3.9375 C 14.125 -3.9375 14.125 -3.859375 13.984375 -3.46875 C 13.484375 -1.71875 12.625 -0.28125 11.375 -0.28125 C 10.9375 -0.28125 10.75 -0.546875 10.75 -1.125 C 10.75 -1.78125 10.984375 -2.390625 11.21875 -2.953125 C 11.703125 -4.328125 12.78125 -7.15625 12.78125 -8.609375 C 12.78125 -10.34375 11.671875 -11.375 9.828125 -11.375 C 7.515625 -11.375 6.25 -9.71875 5.8125 -9.125 C 5.6875 -10.578125 4.625 -11.375 3.453125 -11.375 C 2.265625 -11.375 1.78125 -10.359375 1.515625 -9.90625 C 1.109375 -9.03125 0.75 -7.515625 0.75 -7.40625 C 0.75 -7.15625 1 -7.15625 1.046875 -7.15625 C 1.3125 -7.15625 1.34375 -7.171875 1.484375 -7.734375 C 1.921875 -9.5625 2.4375 -10.796875 3.375 -10.796875 C 3.890625 -10.796875 4.171875 -10.46875 4.171875 -9.625 C 4.171875 -9.078125 4.09375 -8.796875 3.75 -7.453125 Z M 2.265625 -1.515625 "/>
</symbol>
<symbol overflow="visible" id="glyph10-0">
<path style="stroke:none;" d=""/>
</symbol>
<symbol overflow="visible" id="glyph10-1">
<path style="stroke:none;" d="M 16.953125 -5.921875 C 17.390625 -5.921875 17.84375 -5.921875 17.84375 -6.421875 C 17.84375 -6.9375 17.390625 -6.9375 16.953125 -6.9375 L 3.03125 -6.9375 C 2.59375 -6.9375 2.140625 -6.9375 2.140625 -6.421875 C 2.140625 -5.921875 2.59375 -5.921875 3.03125 -5.921875 Z M 16.953125 -5.921875 "/>
</symbol>
<symbol overflow="visible" id="glyph11-0">
<path style="stroke:none;" d=""/>
</symbol>
<symbol overflow="visible" id="glyph11-1">
<path style="stroke:none;" d="M 7.5625 -16.453125 C 7.5625 -17.078125 7.5625 -17.125 6.96875 -17.125 C 5.375 -15.484375 3.109375 -15.484375 2.28125 -15.484375 L 2.28125 -14.6875 C 2.796875 -14.6875 4.328125 -14.6875 5.65625 -15.359375 L 5.65625 -2.03125 C 5.65625 -1.109375 5.578125 -0.796875 3.265625 -0.796875 L 2.4375 -0.796875 L 2.4375 0 C 3.34375 -0.078125 5.578125 -0.078125 6.609375 -0.078125 C 7.640625 -0.078125 9.875 -0.078125 10.78125 0 L 10.78125 -0.796875 L 9.953125 -0.796875 C 7.640625 -0.796875 7.5625 -1.078125 7.5625 -2.03125 Z M 7.5625 -16.453125 "/>
</symbol>
<symbol overflow="visible" id="glyph11-2">
<path style="stroke:none;" d="M 3.265625 -1.984375 L 6 -4.625 C 10 -8.171875 11.546875 -9.5625 11.546875 -12.140625 C 11.546875 -15.078125 9.234375 -17.125 6.09375 -17.125 C 3.1875 -17.125 1.28125 -14.765625 1.28125 -12.46875 C 1.28125 -11.03125 2.578125 -11.03125 2.65625 -11.03125 C 3.09375 -11.03125 3.984375 -11.34375 3.984375 -12.390625 C 3.984375 -13.0625 3.53125 -13.734375 2.625 -13.734375 C 2.421875 -13.734375 2.359375 -13.734375 2.28125 -13.703125 C 2.875 -15.375 4.265625 -16.328125 5.765625 -16.328125 C 8.09375 -16.328125 9.203125 -14.25 9.203125 -12.140625 C 9.203125 -10.078125 7.921875 -8.046875 6.5 -6.453125 L 1.5625 -0.953125 C 1.28125 -0.671875 1.28125 -0.625 1.28125 0 L 10.828125 0 L 11.546875 -4.46875 L 10.90625 -4.46875 C 10.78125 -3.703125 10.59375 -2.578125 10.34375 -2.1875 C 10.15625 -1.984375 8.46875 -1.984375 7.890625 -1.984375 Z M 3.265625 -1.984375 "/>
</symbol>
<symbol overflow="visible" id="glyph12-0">
<path style="stroke:none;" d=""/>
</symbol>
<symbol overflow="visible" id="glyph12-1">
<path style="stroke:none;" d="M 7.21875 0.140625 C 7.21875 -2.140625 6.4375 -3.59375 5 -3.59375 C 3.921875 -3.59375 3.21875 -2.78125 3.21875 -1.8125 C 3.21875 -0.8125 3.921875 0 5.03125 0 C 5.59375 0 6 -0.265625 6.21875 -0.4375 C 6.328125 -0.5625 6.375 -0.5625 6.40625 -0.5625 C 6.484375 -0.5625 6.484375 -0.03125 6.484375 0.140625 C 6.484375 2.515625 5.515625 4.734375 3.890625 6.4375 C 3.734375 6.546875 3.703125 6.625 3.703125 6.78125 C 3.703125 6.96875 3.890625 7.140625 4.078125 7.140625 C 4.40625 7.140625 7.21875 4.40625 7.21875 0.140625 Z M 7.21875 0.140625 "/>
</symbol>
<symbol overflow="visible" id="glyph13-0">
<path style="stroke:none;" d=""/>
</symbol>
<symbol overflow="visible" id="glyph13-1">
<path style="stroke:none;" d="M 7.625 -10.84375 C 7.703125 -11.078125 8.625 -12.921875 10 -14.109375 C 10.96875 -15 12.21875 -15.59375 13.671875 -15.59375 C 15.140625 -15.59375 15.671875 -14.484375 15.671875 -13 C 15.671875 -10.890625 14.140625 -6.671875 13.40625 -4.671875 C 13.078125 -3.78125 12.890625 -3.296875 12.890625 -2.625 C 12.890625 -0.96875 14.03125 0.375 15.8125 0.375 C 19.25 0.375 20.546875 -5.078125 20.546875 -5.296875 C 20.546875 -5.484375 20.40625 -5.625 20.1875 -5.625 C 19.84375 -5.625 19.8125 -5.515625 19.625 -4.890625 C 18.78125 -1.84375 17.375 -0.375 15.921875 -0.375 C 15.546875 -0.375 14.953125 -0.40625 14.953125 -1.59375 C 14.953125 -2.515625 15.375 -3.625 15.59375 -4.140625 C 16.328125 -6.1875 17.890625 -10.328125 17.890625 -12.4375 C 17.890625 -14.671875 16.59375 -16.328125 13.78125 -16.328125 C 10.484375 -16.328125 8.734375 -14 8.078125 -13.078125 C 7.96875 -15.1875 6.4375 -16.328125 4.8125 -16.328125 C 3.625 -16.328125 2.8125 -15.625 2.1875 -14.375 C 1.515625 -13.03125 1 -10.8125 1 -10.671875 C 1 -10.515625 1.140625 -10.328125 1.40625 -10.328125 C 1.703125 -10.328125 1.734375 -10.375 1.96875 -11.21875 C 2.5625 -13.484375 3.21875 -15.59375 4.703125 -15.59375 C 5.546875 -15.59375 5.84375 -15 5.84375 -13.890625 C 5.84375 -13.078125 5.484375 -11.625 5.21875 -10.484375 L 4.1875 -6.484375 C 4.03125 -5.78125 3.625 -4.109375 3.4375 -3.4375 C 3.1875 -2.484375 2.78125 -0.734375 2.78125 -0.5625 C 2.78125 -0.03125 3.1875 0.375 3.734375 0.375 C 4.1875 0.375 4.703125 0.140625 5 -0.40625 C 5.078125 -0.59375 5.40625 -1.890625 5.59375 -2.625 L 6.40625 -5.96875 Z M 7.625 -10.84375 "/>
</symbol>
<symbol overflow="visible" id="glyph14-0">
<path style="stroke:none;" d=""/>
</symbol>
<symbol overflow="visible" id="glyph14-1">
<path style="stroke:none;" d="M 24.953125 -12 C 25.484375 -12.21875 25.703125 -12.484375 25.703125 -12.8125 C 25.703125 -13.1875 25.546875 -13.40625 24.953125 -13.671875 L 4.5625 -23.296875 C 4.03125 -23.546875 3.890625 -23.546875 3.8125 -23.546875 C 3.375 -23.546875 3.078125 -23.21875 3.078125 -22.8125 C 3.078125 -22.359375 3.375 -22.1875 3.78125 -22 L 23.21875 -12.84375 L 3.84375 -3.703125 C 3.109375 -3.375 3.078125 -3.078125 3.078125 -2.84375 C 3.078125 -2.4375 3.40625 -2.109375 3.8125 -2.109375 C 3.921875 -2.109375 4 -2.109375 4.484375 -2.375 Z M 24.40625 5.078125 C 25.03125 5.078125 25.703125 5.078125 25.703125 4.328125 C 25.703125 3.59375 24.921875 3.59375 24.359375 3.59375 L 4.40625 3.59375 C 3.84375 3.59375 3.078125 3.59375 3.078125 4.328125 C 3.078125 5.078125 3.734375 5.078125 4.375 5.078125 Z M 24.40625 5.078125 "/>
</symbol>
<symbol overflow="visible" id="glyph15-0">
<path style="stroke:none;" d=""/>
</symbol>
<symbol overflow="visible" id="glyph15-1">
<path style="stroke:none;" d="M 10.671875 -23.734375 C 10.671875 -24.59375 10.671875 -24.625 9.921875 -24.625 C 9.03125 -23.625 7.1875 -22.25 3.375 -22.25 L 3.375 -21.1875 C 4.21875 -21.1875 6.078125 -21.1875 8.109375 -22.140625 L 8.109375 -2.84375 C 8.109375 -1.515625 8 -1.078125 4.734375 -1.078125 L 3.59375 -1.078125 L 3.59375 0 C 4.59375 -0.078125 8.1875 -0.078125 9.40625 -0.078125 C 10.625 -0.078125 14.1875 -0.078125 15.1875 0 L 15.1875 -1.078125 L 14.03125 -1.078125 C 10.78125 -1.078125 10.671875 -1.515625 10.671875 -2.84375 Z M 10.671875 -23.734375 "/>
</symbol>
</g>
</defs>
<g id="surface2914">
<path style="fill:none;stroke-width:0.4;stroke-linecap:butt;stroke-linejoin:round;stroke:rgb(0%,0%,0%);stroke-opacity:1;stroke-miterlimit:10;" d="M 95.99978 736.000583 L 400.00011 736.000583 " transform="matrix(2.580962,0,0,-2.580962,-247.256154,1982.694963)"/>
<path style="fill:none;stroke-width:0.4;stroke-linecap:butt;stroke-linejoin:round;stroke:rgb(0%,0%,0%);stroke-opacity:1;stroke-miterlimit:10;" d="M 112.000355 768.00022 L 112.000355 703.999433 " transform="matrix(2.580962,0,0,-2.580962,-247.256154,1982.694963)"/>
<path style="fill:none;stroke-width:0.4;stroke-linecap:butt;stroke-linejoin:round;stroke:rgb(0%,0%,0%);stroke-opacity:1;stroke-miterlimit:10;" d="M 143.999992 768.00022 L 143.999992 703.999433 " transform="matrix(2.580962,0,0,-2.580962,-247.256154,1982.694963)"/>
<path style="fill:none;stroke-width:0.4;stroke-linecap:butt;stroke-linejoin:round;stroke:rgb(0%,0%,0%);stroke-opacity:1;stroke-miterlimit:10;" d="M 175.999628 768.00022 L 175.999628 703.999433 " transform="matrix(2.580962,0,0,-2.580962,-247.256154,1982.694963)"/>
<path style="fill:none;stroke-width:0.4;stroke-linecap:butt;stroke-linejoin:round;stroke:rgb(0%,0%,0%);stroke-opacity:1;stroke-miterlimit:10;" d="M 207.999264 768.00022 L 207.999264 703.999433 " transform="matrix(2.580962,0,0,-2.580962,-247.256154,1982.694963)"/>
<path style="fill:none;stroke-width:0.4;stroke-linecap:butt;stroke-linejoin:round;stroke:rgb(0%,0%,0%);stroke-opacity:1;stroke-miterlimit:10;" d="M 240.000414 768.00022 L 240.000414 703.999433 " transform="matrix(2.580962,0,0,-2.580962,-247.256154,1982.694963)"/>
<path style="fill:none;stroke-width:0.4;stroke-linecap:butt;stroke-linejoin:round;stroke:rgb(0%,0%,0%);stroke-opacity:1;stroke-miterlimit:10;" d="M 288.000626 768.00022 L 288.000626 703.999433 " transform="matrix(2.580962,0,0,-2.580962,-247.256154,1982.694963)"/>
<path style="fill:none;stroke-width:0.4;stroke-linecap:butt;stroke-linejoin:round;stroke:rgb(0%,0%,0%);stroke-opacity:1;stroke-miterlimit:10;" d="M 320.000262 768.00022 L 320.000262 703.999433 " transform="matrix(2.580962,0,0,-2.580962,-247.256154,1982.694963)"/>
<path style="fill:none;stroke-width:0.4;stroke-linecap:butt;stroke-linejoin:round;stroke:rgb(0%,0%,0%);stroke-opacity:1;stroke-miterlimit:10;" d="M 351.999899 768.00022 L 351.999899 703.999433 " transform="matrix(2.580962,0,0,-2.580962,-247.256154,1982.694963)"/>
<path style="fill:none;stroke-width:0.4;stroke-linecap:round;stroke-linejoin:round;stroke:rgb(0%,0%,0%);stroke-opacity:1;stroke-miterlimit:10;" d="M 383.999535 768.00022 L 383.999535 768.00022 " transform="matrix(2.580962,0,0,-2.580962,-247.256154,1982.694963)"/>
<path style="fill:none;stroke-width:0.4;stroke-linecap:butt;stroke-linejoin:round;stroke:rgb(0%,0%,0%);stroke-opacity:1;stroke-miterlimit:10;" d="M 383.999535 768.00022 L 383.999535 703.999433 " transform="matrix(2.580962,0,0,-2.580962,-247.256154,1982.694963)"/>
<g style="fill:rgb(0%,0%,0%);fill-opacity:1;">
  <use xlink:href="#glyph0-1" x="83.106974" y="41.806422"/>
</g>
<g style="fill:rgb(0%,0%,0%);fill-opacity:1;">
  <use xlink:href="#glyph1-1" x="103.708213" y="47.360652"/>
</g>
<g style="fill:rgb(0%,0%,0%);fill-opacity:1;">
  <use xlink:href="#glyph2-1" x="83.106974" y="124.402366"/>
</g>
<g style="fill:rgb(0%,0%,0%);fill-opacity:1;">
  <use xlink:href="#glyph3-1" x="100.783983" y="129.956596"/>
</g>
<g style="fill:rgb(0%,0%,0%);fill-opacity:1;">
  <use xlink:href="#glyph0-1" x="165.697757" y="41.806422"/>
</g>
<g style="fill:rgb(0%,0%,0%);fill-opacity:1;">
  <use xlink:href="#glyph1-2" x="186.298995" y="47.360652"/>
</g>
<g style="fill:rgb(0%,0%,0%);fill-opacity:1;">
  <use xlink:href="#glyph2-1" x="165.697757" y="124.402366"/>
</g>
<g style="fill:rgb(0%,0%,0%);fill-opacity:1;">
  <use xlink:href="#glyph3-2" x="183.374765" y="129.956596"/>
</g>
<g style="fill:rgb(0%,0%,0%);fill-opacity:1;">
  <use xlink:href="#glyph0-1" x="248.288539" y="41.806422"/>
</g>
<g style="fill:rgb(0%,0%,0%);fill-opacity:1;">
  <use xlink:href="#glyph1-3" x="268.889777" y="47.360652"/>
</g>
<g style="fill:rgb(0%,0%,0%);fill-opacity:1;">
  <use xlink:href="#glyph2-1" x="248.288539" y="124.402366"/>
</g>
<g style="fill:rgb(0%,0%,0%);fill-opacity:1;">
  <use xlink:href="#glyph3-3" x="265.965547" y="129.956596"/>
</g>
<g style="fill:rgb(0%,0%,0%);fill-opacity:1;">
  <use xlink:href="#glyph0-1" x="330.879321" y="41.806422"/>
</g>
<g style="fill:rgb(0%,0%,0%);fill-opacity:1;">
  <use xlink:href="#glyph1-4" x="351.480559" y="47.360652"/>
</g>
<g style="fill:rgb(0%,0%,0%);fill-opacity:1;">
  <use xlink:href="#glyph2-1" x="330.879321" y="124.402366"/>
</g>
<g style="fill:rgb(0%,0%,0%);fill-opacity:1;">
  <use xlink:href="#glyph3-4" x="348.556329" y="129.956596"/>
</g>
<g style="fill:rgb(0%,0%,0%);fill-opacity:1;">
  <use xlink:href="#glyph4-1" x="413.470103" y="41.811583"/>
  <use xlink:href="#glyph4-1" x="429.724954" y="41.811583"/>
  <use xlink:href="#glyph4-1" x="445.942779" y="41.811583"/>
</g>
<g style="fill:rgb(0%,0%,0%);fill-opacity:1;">
  <use xlink:href="#glyph4-1" x="413.470103" y="124.402366"/>
  <use xlink:href="#glyph4-1" x="429.724954" y="124.402366"/>
  <use xlink:href="#glyph4-1" x="445.942779" y="124.402366"/>
</g>
<g style="fill:rgb(0%,0%,0%);fill-opacity:1;">
  <use xlink:href="#glyph0-1" x="702.53784" y="41.806422"/>
</g>
<g style="fill:rgb(0%,0%,0%);fill-opacity:1;">
  <use xlink:href="#glyph5-1" x="723.139078" y="47.360652"/>
</g>
<g style="fill:rgb(0%,0%,0%);fill-opacity:1;">
  <use xlink:href="#glyph2-1" x="702.53784" y="124.402366"/>
</g>
<g style="fill:rgb(0%,0%,0%);fill-opacity:1;">
  <use xlink:href="#glyph6-1" x="720.214849" y="129.956596"/>
</g>
<g style="fill:rgb(0%,0%,0%);fill-opacity:1;">
  <use xlink:href="#glyph0-1" x="578.651667" y="41.806422"/>
</g>
<g style="fill:rgb(0%,0%,0%);fill-opacity:1;">
  <use xlink:href="#glyph5-1" x="599.252905" y="47.360652"/>
</g>
<g style="fill:rgb(0%,0%,0%);fill-opacity:1;">
  <use xlink:href="#glyph7-1" x="614.687058" y="47.360652"/>
</g>
<g style="fill:rgb(0%,0%,0%);fill-opacity:1;">
  <use xlink:href="#glyph8-1" x="634.686932" y="47.360652"/>
</g>
<g style="fill:rgb(0%,0%,0%);fill-opacity:1;">
  <use xlink:href="#glyph0-2" x="578.651667" y="124.397204"/>
</g>
<g style="fill:rgb(0%,0%,0%);fill-opacity:1;">
  <use xlink:href="#glyph9-1" x="596.328675" y="129.951434"/>
</g>
<g style="fill:rgb(0%,0%,0%);fill-opacity:1;">
  <use xlink:href="#glyph10-1" x="611.762828" y="129.951434"/>
</g>
<g style="fill:rgb(0%,0%,0%);fill-opacity:1;">
  <use xlink:href="#glyph11-1" x="631.762702" y="129.951434"/>
</g>
<g style="fill:rgb(0%,0%,0%);fill-opacity:1;">
  <use xlink:href="#glyph0-1" x="496.060885" y="41.806422"/>
</g>
<g style="fill:rgb(0%,0%,0%);fill-opacity:1;">
  <use xlink:href="#glyph5-1" x="516.662123" y="47.360652"/>
</g>
<g style="fill:rgb(0%,0%,0%);fill-opacity:1;">
  <use xlink:href="#glyph7-1" x="532.096276" y="47.360652"/>
</g>
<g style="fill:rgb(0%,0%,0%);fill-opacity:1;">
  <use xlink:href="#glyph8-2" x="552.09615" y="47.360652"/>
</g>
<g style="fill:rgb(0%,0%,0%);fill-opacity:1;">
  <use xlink:href="#glyph0-2" x="496.060885" y="124.397204"/>
</g>
<g style="fill:rgb(0%,0%,0%);fill-opacity:1;">
  <use xlink:href="#glyph9-1" x="513.737893" y="129.951434"/>
</g>
<g style="fill:rgb(0%,0%,0%);fill-opacity:1;">
  <use xlink:href="#glyph10-1" x="529.172046" y="129.951434"/>
</g>
<g style="fill:rgb(0%,0%,0%);fill-opacity:1;">
  <use xlink:href="#glyph11-2" x="549.17192" y="129.951434"/>
</g>
<g style="fill:rgb(0%,0%,0%);fill-opacity:1;">
  <use xlink:href="#glyph12-1" x="785.128622" y="83.106974"/>
</g>
<g style="fill:rgb(0%,0%,0%);fill-opacity:1;">
  <use xlink:href="#glyph13-1" x="807.2836" y="83.106974"/>
</g>
<g style="fill:rgb(0%,0%,0%);fill-opacity:1;">
  <use xlink:href="#glyph14-1" x="839.210099" y="83.106974"/>
</g>
<g style="fill:rgb(0%,0%,0%);fill-opacity:1;">
  <use xlink:href="#glyph15-1" x="878.296186" y="83.106974"/>
</g>
</g>
</svg>
